Place,Name,Sex,BirthDate,Age,Country,State,Equipment,Division,BodyweightKg,WeightClassKg,Squat1Kg,Squat2Kg,Squat3Kg,Best3SquatKg,Bench1Kg,Bench2Kg,Bench3Kg,Best3BenchKg,Deadlift1Kg,Deadlift2Kg,Deadlift3Kg,Best3DeadliftKg,TotalKg,Event,Team,Tested
1,Katherine Wright,F,1976-02-01,47,Australia,QLD,Wraps,M45-49,81.2,82.5,170,-180,-180,170,87.5,95,97.5,97.5,160,170,-175,170,437.5,SBD,Biomechanical,Yes
1,Bec Giles,F,1986-01-11,37,Australia,QLD,Raw,Open,64.9,67.5,142.5,150,-155,150,90,95,-100,95,155,165,170,170,415,SBD,Storiestrong,Yes
1,Marissa Sidiros,F,1996-12-18,26,Australia,QLD,Raw,Open,73.7,75,117.5,125,-130,125,67.5,-72.5,-72.5,67.5,132.5,142.5,152.5,152.5,345,SBD,Storiestrong,Yes
1,Katherine Wright,F,1976-02-01,47,Australia,QLD,Wraps,Open,81.2,82.5,170,-180,-180,170,87.5,95,97.5,97.5,160,170,-175,170,437.5,SBD,Biomechanical,Yes
2,Amanda Mcevoy,F,1986-02-26,37,Australia,QLD,Raw,Open,81.3,82.5,90,100,107.5,107.5,62.5,67.5,-70,67.5,120,130,137.5,137.5,312.5,SBD,Royston Conditioning,Yes
1,Angela Cheung,F,1987-08-04,36,Australia,QLD,Raw,Open,98,100,160,165,170,170,82.5,-90,90,90,147.5,157.5,-167.5,157.5,417.5,SBD,EPIC,Yes
1,Lee Musgrave,F,1988-11-20,34,,,Wraps,Open,82.3,82.5,175,185,190,190,80,-85,-85,80,180,-190,-190,180,450,SBD,,Yes
1,Deyana Stuebner,F,1990-11-13,32,,,Raw,Open,89.9,90,145,-155,155,155,80,85,-87.5,85,180,-192.5,-192.5,180,420,SBD,,Yes
1,Cyder Barola,M,2001-01-20,22,Australia,QLD,Raw,J20-23,74.2,75,165,170,-180,170,90,-100,100,100,210,220,-230,220,490,SBD,,Yes
1,Josh Urquhart,M,2001-09-08,22,Australia,QLD,Raw,J20-23,78.4,82.5,157.5,170,180,180,105,115,120,120,175,187.5,-200,187.5,487.5,SBD,Storiestrong,Yes
1,Marc Carino,M,1999-04-23,24,,,Raw,Open,73.7,75,180,190,200,200,115,-125,-125,115,220,230,-240,230,545,SBD,,Yes
2,Cyder Barola,M,2001-01-20,22,Australia,QLD,Raw,Open,74.2,75,165,170,-180,170,90,-100,100,100,210,220,-230,220,490,SBD,,Yes
DQ,Scott Reardon,M,1996-06-20,27,Australia,QLD,Raw,Open,71.9,75,-160,-165,-165,,95,-100,-100,95,170,175,-180,175,,SBD,,Yes
1,Josh Urquhart,M,2001-09-08,22,Australia,QLD,Raw,Open,78.4,82.5,157.5,170,180,180,105,115,120,120,175,187.5,-200,187.5,487.5,SBD,Storiestrong,Yes
1,John Fogarty,M,1988-09-30,35,,,Raw,Open,89.3,90,200,212.5,-222.5,212.5,120,127.5,132.5,132.5,240,262.5,-272.5,262.5,607.5,SBD,Storiestrong,Yes
1,Mosiah Kefu,M,1999-08-07,24,Australia,QLD,Raw,Open,99.7,100,225,240,255,255,160,172.5,-182.5,172.5,225,245,-257.5,245,672.5,SBD,Tom Fox,Yes
2,Dulana Kolammune,M,1998-12-24,24,,,Raw,Open,99.7,100,192.5,205,-210,205,97.5,105,-110,105,210,225,230,230,540,SBD,,Yes
1,Liam Evans,M,1999-01-09,24,Australia,QLD,Raw,Open,109.8,110,222.5,-227.5,-227.5,222.5,117.5,122.5,-127.5,122.5,235,-245,,235,580,SBD,Storiestrong,Yes
